{
  "production": {
    "name": "G-Retail Field App - Production Mode",
    "port": 4300,
    "mode": "production",
    "protocol": "http",
    "serverUrl": "",
    "serverUrlWebUrlLink": "",
    "database": {
      "multipleStatements": true,
      "host": "localhost",
      "user": "root",
      "password": "root12345",
      "database": "field_app",
      "dialect": "mysql",
      "operatorsAliases": 1,
      "logging": false,
      "timestamps": false,
      "freezeTableName": true,
      "pool": {
        "max": 5,
        "min": 0,
        "acquire": 30000,
        "idle": 10000
      }
    },
    "email": {
      "host": "",
      "port": "",
      "username": "",
      "password": ""
    },
    "keys": {
      "secret": "RgUkXp2s5v8y/B?E(H+KbPeShVmYq3t6",
	    "PUSHER_BEAM_INSTANCE_ID": "350f5921-5fe5-41d6-885f-1e2292512f74",
	    "PUSHER_BEAM_SECRET_KEY": "76C53A74CB57E1C7A9BB88B0EFC6DF90F579F68CEEA4AD07D9B9E9691389DB38",
	    "PUSHER_CHANNEL_ID": "76C53A74CB57E1C7A9BB88B0E",
	    "PUSHER_CHANNEL_KEY": "76C53A74CB57E1C7A9BB88B0E",
	    "PUSHER_CHANNEL_SECRET_KEY": "76C53A74CB57E1C7A9BB88B0E"
    },
    "cors": {
      "secret": "y/A?D(G+KbPeShVmYq3t6w9z$C&E)H@M"
    },
    "google": {
      "GOOGLE_STORAGE_BUCKET": "test-upload-302402",
      "SERVICE_ACCOUNT": "./../../../../config/credentials/upload-creds.json",
      "KEYFILENAME": "upload-creds.json"
    }
  }
}
